Ebola Analysis and Plotting
…
Using ggplot()

sex <- outbreaks::ebola_sim$linelist$gender
cases <- tibble(onset= onset, sex= sex)
cases

## # A tibble: 5,888 × 2
##    onset      sex  
##    <date>     <fct>
##  1 2014-04-07 f    
##  2 2014-04-15 m    
##  3 2014-04-21 f    
##  4 2014-04-27 f    
##  5 2014-04-26 f    
##  6 2014-04-25 f    
##  7 2014-05-03 f    
##  8 2014-05-01 f    
##  9 2014-04-21 m    
## 10 2014-05-05 m    
## # ℹ 5,878 more rows
…
